<?xml version="1.0" encoding="UTF-8"?>
<svg enable-background="new 0.36 234.92 411.04 323.04" fill="#323639" version="1.1" viewBox="0.36 234.92 411.04 323.04" xml:space="preserve" xmlns="http://www.w3.org/2000/svg">
<path d="m405.32 280.92h-54.8v-40c0-3.314-2.686-6-6-6h-307.76c-20.085 0.044-36.356 16.315-36.4 36.4v250.24c0.044 20.085 16.315 36.356 36.4 36.4h338.24c20.085-0.044 36.356-16.315 36.4-36.4v-234.64c0-3.314-2.686-6-5.999-6.001-0.027 0-0.054 1e-3 -0.081 1e-3zm-368.56 265.12c-13.458-0.044-24.356-10.943-24.4-24.4v-250.08c0.044-13.458 10.942-24.356 24.4-24.4h301.76v274.4c0.022 9.021 3.385 17.714 9.44 24.4l-311.2 0.08zm362.24-24.48c3e-3 13.335-10.668 24.219-24 24.48-13.253 0.223-24.177-10.34-24.4-23.593-5e-3 -0.269-5e-3 -0.538 0-0.807v-228.64h48.4v228.56z"/>
<path d="m59.88 327.08c2.381-0.085 4.279-2.018 4.32-4.4v-33.36l25.76 35.68 0.4 0.48c0.803 0.992 2.004 1.577 3.28 1.6 2.412-0.043 4.357-1.988 4.4-4.4v-46.72c-0.085-2.381-2.018-4.279-4.4-4.32-2.368 0.043-4.277 1.952-4.32 4.32v33.04l-26.32-35.84c-1.428-1.92-4.13-2.347-6.08-0.96-1.165 0.855-1.826 2.236-1.76 3.68v46.72c-0.051 2.43 1.878 4.44 4.307 4.491 0.138 3e-3 0.276-1e-3 0.413-0.011z"/>
<path d="m116.52 327.08h26.48c2.452-0.33 4.173-2.585 3.843-5.037-0.269-2-1.842-3.574-3.843-3.843h-22v-14.88h18.72c2.452-0.33 4.173-2.585 3.843-5.037-0.269-2-1.842-3.574-3.843-3.843h-18.72v-14.72h22c2.425-0.085 4.359-2.054 4.4-4.48-0.043-2.412-1.988-4.357-4.4-4.4h-26.48c-2.43 0-4.4 1.97-4.4 4.4v47.36c-0.044 2.43 1.89 4.435 4.319 4.479 0.027 1e-3 0.054 1e-3 0.081 1e-3z"/>
<path d="m176.76 324.28c0.117 0.249 0.251 0.489 0.4 0.72v0.48h0.56c0.204 0.209 0.449 0.372 0.72 0.48h2.56c0.209-0.058 0.431-0.058 0.64 0l0.64-0.48h0.48l0.48-0.48v-0.72l10.48-24.88 10.56 24.88c-0.039 0.238-0.039 0.482 0 0.72v0.48h0.56c0.188 0.226 0.439 0.393 0.72 0.48h3.12s0.48 0 0.72-0.48h0.56v-0.48c0.177-0.213 0.312-0.457 0.4-0.72l19.68-46.8c0.948-2.187-0.054-4.729-2.24-5.68-2.254-0.95-4.853 0.082-5.84 2.32l-16 37.2-10.32-24.64c-0.727-1.649-2.358-2.715-4.16-2.72-1.815-0.038-3.467 1.042-4.16 2.72l-10.32 24.64-16-37.2c-1.301-2.052-4.02-2.661-6.072-1.36-1.582 1.003-2.355 2.897-1.928 4.72l23.76 46.8z"/>
<path d="m265.96 327c5.318 0.094 10.528-1.503 14.88-4.56 4.181-2.799 6.745-7.451 6.88-12.48-2e-3 -2.4-0.666-4.753-1.92-6.8-1.989-2.921-4.762-5.223-8-6.64-3.55-1.621-7.284-2.803-11.12-3.52-3.529-0.518-6.925-1.713-10-3.52-0.845-0.551-1.578-1.257-2.16-2.08-0.412-0.672-0.608-1.454-0.56-2.24 0.135-2.074 1.268-3.953 3.04-5.04 2.631-1.817 5.763-2.768 8.96-2.72 4.824-0.058 9.478 1.78 12.96 5.12 1.755 1.268 4.205 0.873 5.473-0.882 0.074-0.103 0.143-0.209 0.207-0.318 1.221-1.885 0.726-4.4-1.12-5.68-4.896-4.144-11.106-6.412-17.52-6.4-4.967-0.061-9.831 1.42-13.92 4.24-3.876 2.685-6.25 7.047-6.4 11.76-0.016 2.316 0.622 4.59 1.84 6.56 1.836 2.745 4.417 4.91 7.44 6.24 3.321 1.476 6.815 2.524 10.4 3.12 3.879 0.566 7.621 1.841 11.04 3.76 0.972 0.607 1.793 1.428 2.4 2.4 0.489 0.763 0.74 1.654 0.72 2.56-0.127 2.37-1.414 4.524-3.44 5.76-2.949 1.993-6.441 3.027-10 2.96-5.652-0.337-11.041-2.499-15.36-6.16-1.769-1.451-4.379-1.201-5.84 0.56-1.388 1.803-1.106 4.38 0.64 5.84 5.759 4.873 12.948 7.737 20.48 8.16z"/>
<path d="m291.72 346.36h-241.84c-3.314 0-6 2.686-6 6s2.686 6 6 6h241.84c3.314 0 6-2.686 6-6s-2.686-6-6-6z"/>
<path d="m265 395h-215.12c-3.314 0-6 2.686-6 6s2.686 6 6 6h215.12c3.314 0 6-2.686 6-6s-2.686-6-6-6z"/>
<path d="m265 426.04h-215.12c-3.314 0-6 2.686-6 6s2.686 6 6 6h215.12c3.314 0 6-2.686 6-6s-2.686-6-6-6z"/>
<path d="m265 457h-215.12c-3.314 0-6 2.686-6 6s2.686 6 6 6h215.12c3.314 0 6-2.686 6-6s-2.686-6-6-6z"/>
<path d="m265 488.04h-215.12c-3.314 0-6 2.686-6 6s2.686 6 6 6h215.12c3.314 0 6-2.686 6-6s-2.686-6-6-6z"/>
</svg>
