<?xml version="1.0" encoding="UTF-8"?>
<svg enable-background="new -49 141 512 512" version="1.1" fill="#323639" viewBox="-49 141 512 512" xml:space="preserve" xmlns="http://www.w3.org/2000/svg">
<path d="m207 533c22.091 0 40-17.909 40-40s-17.909-40-40-40-40 17.909-40 40c0.026 22.08 17.92 39.974 40 40zm0-64c13.255 0 24 10.745 24 24s-10.745 24-24 24-24-10.745-24-24 10.745-24 24-24z"/>
<path d="m159 637h96c4.418 0 8-3.582 8-8v-40h8c30.911-0.04 55.96-25.089 56-56v-9.368c12.499-4.411 19.056-18.12 14.645-30.619-3.388-9.6-12.464-16.018-22.645-16.013h-16c-13.255 0-24 10.745-24 24v32c0 4.418-3.582 8-8 8h-128c-4.418 0-8-3.582-8-8v-32c0-13.255-10.745-24-24-24h-16c-13.255 0-24 10.745-24 24 5e-3 10.167 6.415 19.227 16 22.616v9.384c0.04 30.911 25.089 55.96 56 56h8v40c0 4.418 3.582 8 8 8zm-16-64c-22.08-0.026-39.974-17.92-40-40v-16c0-4.418-3.582-8-8-8s-8-3.582-8-8 3.582-8 8-8h16c4.418 0 8 3.582 8 8v32c0 13.255 10.745 24 24 24h128c13.255 0 24-10.745 24-24v-32c0-4.418 3.582-8 8-8h16c4.418 0 8 3.582 8 8s-3.582 8-8 8-8 3.582-8 8v16c-0.026 22.08-17.92 39.974-40 40h-16c-4.418 0-8 3.582-8 8v40h-80v-40c0-4.418-3.582-8-8-8h-16z"/>
<path d="m223 405c13.255 0 24-10.745 24-24s-10.745-24-24-24h-24c-13.255 0-24 10.745-24 24h16c0-4.418 3.582-8 8-8h24c4.418 0 8 3.582 8 8s-3.582 8-8 8c-13.255 0-24 10.745-24 24h16c0-4.418 3.582-8 8-8z"/>
<rect x="199" y="421" width="16" height="16"/>
<path d="m58.064 205.61c-2.99-1.239-6.432-0.553-8.72 1.736l-40 40c-3.123 3.124-3.123 8.188 0 11.312l40 40c3.125 3.124 8.19 3.123 11.314-2e-3 1.499-1.5 2.342-3.533 2.342-5.654v-16h56v56c0 4.418 3.582 8 8 8h32c4.418 0 8-3.582 8-8v-64c-0.026-22.08-17.92-39.974-40-40h-64v-16c1e-3 -3.235-1.947-6.153-4.936-7.392zm68.936 39.392c13.255 0 24 10.745 24 24v56h-16v-48c0-8.837-7.163-16-16-16h-64c-4.418 0-8 3.582-8 8v4.688l-20.688-20.688 20.688-20.688v4.688c0 4.418 3.582 8 8 8h72z"/>
<path d="m355.94 300.39c2.99 1.239 6.432 0.553 8.72-1.736l40-40c3.123-3.124 3.123-8.188 0-11.312l-40-40c-3.125-3.124-8.19-3.123-11.314 2e-3 -1.499 1.5-2.342 3.534-2.342 5.654v16h-64c-22.08 0.026-39.974 17.92-40 40v64c0 4.418 3.582 8 8 8h32c4.418 0 8-3.582 8-8v-56h56v16c-1e-3 3.235 1.947 6.153 4.936 7.392zm-60.936-39.392c-8.837 0-16 7.163-16 16v48h-16v-56c0-13.255 10.745-24 24-24h72c4.418 0 8-3.582 8-8v-4.688l20.688 20.688-20.688 20.688v-4.688c0-4.418-3.582-8-8-8h-64z"/>
<path d="m212.66 159.34c-3.124-3.123-8.188-3.123-11.312 0l-40 40c-3.124 3.125-3.123 8.19 2e-3 11.314 1.5 1.499 3.534 2.342 5.654 2.342h16v120c0 4.418 3.582 8 8 8h32c4.418 0 8-3.582 8-8v-120h16c4.418-1e-3 7.999-3.583 7.998-8.002 0-2.121-0.843-4.154-2.342-5.654l-40-40zm10.344 37.656c-4.418 0-8 3.582-8 8v120h-16v-120c0-4.418-3.582-8-8-8h-4.688l20.688-20.688 20.688 20.688h-4.688z"/>
</svg>
